TFG
…
districts_filt <- districts %>% filter(Type == "Public School District" & !(grepl(x = Name,pattern = "TEC|Vocational|Technical")) & !(grepl(x = Name,pattern = "non-op")))

selected_districts <- read.table("data/selected_districts.txt", sep = ",")

Warning in read.table("data/selected_districts.txt", sep = ","): incomplete
final line found by readTableHeader on 'data/selected_districts.txt'

selected_districts <- selected_districts %>% 
  pivot_longer(1:72, names_to = "Index", values_to = "Name") %>% 
  select(Name)

selected_districts

# A tibble: 72 × 1
   Name      
   <chr>     
 1 Andover   
 2 Belmont   
 3 Boston    
 4 Braintree 
 5 Brookline 
 6 Burlington
 7 Cambridge 
 8 Canton    
 9 Carlisle  
10 Chelsea   
# ℹ 62 more rows
…
